{
    "/js/app.js": "/js/app.js",
    "/css/app.css": "/css/app.css",
    "/css/voyager/app.css": "/css/voyager/app.css",
    "/css/main/app.css": "/css/main/app.css",
    "/css/forum/app.css": "/css/forum/app.css",
    "/css/classroom/app.css": "/css/classroom/app.css",
    "/js/classroom.js": "/js/classroom.js",
    "/js/forum.js": "/js/forum.js",
    "/js/resource.js": "/js/resource.js"
}
